<?xml version="1.0" encoding="UTF-8"?>
<symbol version="7" name="RegisterBlock32Bit">
    <symboltype>BLOCK</symboltype>
    <timestamp>2013-12-6T13:46:16</timestamp>
    <attr value="RegisterBlock32Bit" name="VeriModel" />
    <pin polarity="Input" x="0" y="-416" name="CLK" />
    <pin polarity="Input" x="0" y="-352" name="reset" />
    <pin polarity="Input" x="0" y="-288" name="writeEn" />
    <pin polarity="Input" x="0" y="-224" name="readReg1(4:0)" />
    <pin polarity="Input" x="0" y="-160" name="readReg2(4:0)" />
    <pin polarity="Input" x="0" y="-96" name="writeReg(4:0)" />
    <pin polarity="Input" x="0" y="-32" name="writeData(31:0)" />
    <pin polarity="Output" x="464" y="-416" name="outReg1(31:0)" />
    <pin polarity="Output" x="464" y="-32" name="outReg2(31:0)" />
    <graph>
        <rect width="336" x="64" y="-448" height="448" />
        <attrtext style="alignment:BCENTER;fontsize:56;fontname:Arial" attrname="SymbolName" x="232" y="-456" type="symbol" />
        <attrtext style="fontsize:24;fontname:Arial" attrname="PinName" x="72" y="-416" type="pin CLK" />
        <line x2="0" y1="-416" y2="-416" x1="64" />
        <attrtext style="fontsize:24;fontname:Arial" attrname="PinName" x="72" y="-352" type="pin reset" />
        <line x2="0" y1="-352" y2="-352" x1="64" />
        <attrtext style="fontsize:24;fontname:Arial" attrname="PinName" x="72" y="-288" type="pin writeEn" />
        <line x2="0" y1="-288" y2="-288" x1="64" />
        <attrtext style="fontsize:24;fontname:Arial" attrname="PinName" x="72" y="-224" type="pin readReg1(4:0)" />
        <rect width="64" x="0" y="-236" height="24" />
        <line x2="0" y1="-224" y2="-224" x1="64" />
        <attrtext style="fontsize:24;fontname:Arial" attrname="PinName" x="72" y="-160" type="pin readReg2(4:0)" />
        <rect width="64" x="0" y="-172" height="24" />
        <line x2="0" y1="-160" y2="-160" x1="64" />
        <attrtext style="fontsize:24;fontname:Arial" attrname="PinName" x="72" y="-96" type="pin writeReg(4:0)" />
        <rect width="64" x="0" y="-108" height="24" />
        <line x2="0" y1="-96" y2="-96" x1="64" />
        <attrtext style="fontsize:24;fontname:Arial" attrname="PinName" x="72" y="-32" type="pin writeData(31:0)" />
        <rect width="64" x="0" y="-44" height="24" />
        <line x2="0" y1="-32" y2="-32" x1="64" />
        <attrtext style="alignment:RIGHT;fontsize:24;fontname:Arial" attrname="PinName" x="392" y="-416" type="pin outReg1(31:0)" />
        <rect width="64" x="400" y="-428" height="24" />
        <line x2="464" y1="-416" y2="-416" x1="400" />
        <attrtext style="alignment:RIGHT;fontsize:24;fontname:Arial" attrname="PinName" x="392" y="-32" type="pin outReg2(31:0)" />
        <rect width="64" x="400" y="-44" height="24" />
        <line x2="464" y1="-32" y2="-32" x1="400" />
    </graph>
</symbol>
